{
  "users": [
    {
      "username": "admin",
      "password": "123",
      "name": "Fernando Colon",
      "level": "admin",
      "id": 1
    },
    {
      "username": "editor",
      "password": "abc",
      "name": "Lusciel Torres",
      "level": "editor",
      "id": 2
    },
    {
      "username": "user",
      "password": "qwerty",
      "name": "Alani Torres",
      "level": "user",
      "id": 3
    }
  ],
  "customers": [
    {
      "name": "Fernando",
      "age": "40",
      "code": "COGF",
      "id": 1
    },
    {
      "name": "Lusci",
      "age": "38",
      "code": "TOAK",
      "registeredBy": "110417233201390517091",
      "id": 2
    },
    {
      "name": "Alani",
      "age": "12",
      "code": "OITA",
      "id": 3
    }
  ],
  "logs": [
    {
      "userId": 1,
      "action": "LOGIN",
      "date": "2020-04-22T21:45:21.398Z",
      "id": 1
    },
    {
      "userId": 1,
      "action": "LOGOUT",
      "date": "2020-04-22T21:45:37.739Z",
      "id": 2
    },
    {
      "userId": 1,
      "action": "LOGOUT",
      "date": "2020-04-22T21:48:09.833Z",
      "id": 3
    },
    {
      "userId": 1,
      "action": "LOGIN",
      "date": "2020-04-22T22:43:28.187Z",
      "id": 4
    },
    {
      "userId": 1,
      "action": "DELETE_CUSTOMER Alani",
      "date": "2020-04-23T00:08:58.239Z",
      "id": 5
    },
    {
      "userId": 1,
      "action": "EDIT_CUSTOMER Fernando",
      "date": "2020-04-23T00:09:43.381Z",
      "id": 6
    },
    {
      "action": "LOGOUT",
      "date": "2020-04-23T00:09:54.728Z",
      "id": 7
    },
    {
      "userId": 3,
      "action": "LOGIN",
      "date": "2020-04-23T00:10:00.582Z",
      "id": 8
    },
    {
      "action": "LOGOUT",
      "date": "2020-04-23T00:10:07.550Z",
      "id": 9
    },
    {
      "userId": 3,
      "action": "LOGIN",
      "date": "2020-04-23T00:10:14.724Z",
      "id": 10
    },
    {
      "action": "LOGOUT",
      "date": "2020-04-23T00:10:56.251Z",
      "id": 11
    },
    {
      "userId": 2,
      "action": "LOGIN",
      "date": "2020-04-23T00:11:19.440Z",
      "id": 12
    },
    {
      "userId": 2,
      "action": "ADD_CUSTOMER Alani",
      "date": "2020-04-23T00:17:46.181Z",
      "id": 13
    },
    {
      "action": "LOGOUT",
      "date": "2020-04-23T00:18:11.879Z",
      "id": 14
    }
  ]
}